%YAML 1.1
%TAG !u! tag:unity3d.com,2011:
--- !u!1 &6886962285334386402
GameObject:
  m_ObjectHideFlags: 0
  m_CorrespondingSourceObject: {fileID: 0}
  m_PrefabInstance: {fileID: 0}
  m_PrefabAsset: {fileID: 0}
  serializedVersion: 6
  m_Component:
  - component: {fileID: 6886962285334386400}
  - component: {fileID: 6886962285334386401}
  m_Layer: 0
  m_Name: ScoreManager
  m_TagString: Untagged
  m_Icon: {fileID: 0}
  m_NavMeshLayer: 0
  m_StaticEditorFlags: 0
  m_IsActive: 1
--- !u!4 &6886962285334386400
Transform:
  m_ObjectHideFlags: 0
  m_CorrespondingSourceObject: {fileID: 0}
  m_PrefabInstance: {fileID: 0}
  m_PrefabAsset: {fileID: 0}
  m_GameObject: {fileID: 6886962285334386402}
  m_LocalRotation: {x: 0, y: 0, z: 0, w: 1}
  m_LocalPosition: {x: 43.387344, y: 39.92776, z: -242.501}
  m_LocalScale: {x: 1, y: 1, z: 1}
  m_Children: []
  m_Father: {fileID: 0}
  m_RootOrder: 0
  m_LocalEulerAnglesHint: {x: 0, y: 0, z: 0}
--- !u!114 &6886962285334386401
MonoBehaviour:
  m_ObjectHideFlags: 0
  m_CorrespondingSourceObject: {fileID: 0}
  m_PrefabInstance: {fileID: 0}
  m_PrefabAsset: {fileID: 0}
  m_GameObject: {fileID: 6886962285334386402}
  m_Enabled: 1
  m_EditorHideFlags: 0
  m_Script: {fileID: 11500000, guid: ebb9fb00b5c2845a8b9cf841dfaa3b0a, type: 3}
  m_Name: 
  m_EditorClassIdentifier: 
  m_autoScorePeriod: 0.2
  m_autoScoreValue: 1
  m_boostScorePeriod: 0.1
  m_boostScoreValue: 1
  m_boostTimerGracePeriod: 1
  m_coinScoreValue: 5
  m_scoreGateValue: 50
  player0Alive: 0
  player1Alive: 0
  currentLevel: 0
  currentMultiplier: 1
  levelScoreThresholds: c8000000f4010000e8030000d0070000b80b000088130000
  levelSpeedMultipliers:
  - 1
  - 1.2
  - 1.5
  - 1.8
  - 2.1
  - 2.5
